%YAML 1.1
%TAG !u! tag:unity3d.com,2011:
--- !u!114 &11400000
MonoBehaviour:
  m_ObjectHideFlags: 0
  m_PrefabParentObject: {fileID: 0}
  m_PrefabInternal: {fileID: 0}
  m_GameObject: {fileID: 0}
  m_Enabled: 1
  m_EditorHideFlags: 0
  m_Script: {fileID: 11500000, guid: 9c92bcaf9554d3d428b5f649f7191b75, type: 3}
  m_Name: ONESHOTS's NONE Data Collection
  m_EditorClassIdentifier: 
  parameters:
    mode: 0
    bpmsDictionary:
      m_keys: 00000000
      m_values:
      - {fileID: 11400000, guid: 14fd9e796723ece4e855a91009c8883b, type: 2}
