%YAML 1.1
%TAG !u! tag:unity3d.com,2011:
--- !u!114 &11400000
MonoBehaviour:
  m_ObjectHideFlags: 0
  m_PrefabParentObject: {fileID: 0}
  m_PrefabInternal: {fileID: 0}
  m_GameObject: {fileID: 0}
  m_Enabled: 1
  m_EditorHideFlags: 0
  m_Script: {fileID: 11500000, guid: 0ef38553a648d4847ba1cf3277b880b4, type: 3}
  m_Name: CharacterCrouchInState
  m_EditorClassIdentifier: 
  ongoingActions:
  - {fileID: 11400000, guid: 9caef1eede285ee4da35534c0dfb60e7, type: 2}
  - {fileID: 11400000, guid: f45bf39903c226b42b423debfb3661cf, type: 2}
  - {fileID: 11400000, guid: 83b3c3babd7e9194e8c0ea5aa6484719, type: 2}
  startStateActions: []
  endStateActions: []
  transitions:
  - name: Crouching in --> Crouched
    nextstate: {fileID: 11400000, guid: c244caafffd6ac2498430f4af9d6f601, type: 2}
    decisions:
    - {fileID: 11400000, guid: 7457dec5344699744b09fe462fe315ad, type: 2}
    actions:
    - {fileID: 11400000, guid: 741699e957b5cb14c8d7c3811892c892, type: 2}
  - name: Crouching in --> Crouched off
    nextstate: {fileID: 11400000, guid: ebea24462d5e72e4f81e1b9a55a162da, type: 2}
    decisions:
    - {fileID: 11400000, guid: 228621fa9c0258f44a7ed811930d2895, type: 2}
    actions: []
