%YAML 1.1
%TAG !u! tag:unity3d.com,2011:
--- !u!114 &11400000
MonoBehaviour:
  m_ObjectHideFlags: 0
  m_PrefabParentObject: {fileID: 0}
  m_PrefabInternal: {fileID: 0}
  m_GameObject: {fileID: 0}
  m_Enabled: 1
  m_EditorHideFlags: 0
  m_Script: {fileID: 11500000, guid: 0ef38553a648d4847ba1cf3277b880b4, type: 3}
  m_Name: z_notimplemented_CharacterSprintingState
  m_EditorClassIdentifier: 
  ongoingActions:
  - {fileID: 0}
  - {fileID: 11400000, guid: 47ce1cf9f61fa874f9c9b016ba1d745b, type: 2}
  startStateActions: []
  endStateActions: []
  transitions:
  - name: 
    nextstate: {fileID: 0}
    decisions:
    - {fileID: 0}
    actions: []
  - name: 
    nextstate: {fileID: 0}
    decisions: []
    actions: []
