%YAML 1.1
%TAG !u! tag:unity3d.com,2011:
--- !u!114 &11400000
MonoBehaviour:
  m_ObjectHideFlags: 0
  m_PrefabParentObject: {fileID: 0}
  m_PrefabInternal: {fileID: 0}
  m_GameObject: {fileID: 0}
  m_Enabled: 1
  m_EditorHideFlags: 0
  m_Script: {fileID: 11500000, guid: 0ef38553a648d4847ba1cf3277b880b4, type: 3}
  m_Name: z_notimplemented_CharacterWallRunningState
  m_EditorClassIdentifier: 
  ongoingActions:
  - {fileID: 11400000, guid: f45bf39903c226b42b423debfb3661cf, type: 2}
  startStateActions: []
  endStateActions: []
  transitions:
  - name: Wall Run Off
    nextstate: {fileID: 11400000, guid: 4fe909d7516b15e42b369cabfa03db6c, type: 2}
    decisions:
    - {fileID: 11400000, guid: ba42591c84af9904c8b227f741c9c8ea, type: 2}
    actions: []
