%YAML 1.1
%TAG !u! tag:unity3d.com,2011:
--- !u!114 &11400000
MonoBehaviour:
  m_ObjectHideFlags: 0
  m_PrefabParentObject: {fileID: 0}
  m_PrefabInternal: {fileID: 0}
  m_GameObject: {fileID: 0}
  m_Enabled: 1
  m_EditorHideFlags: 0
  m_Script: {fileID: 11500000, guid: edd2d49e9f57a3f46b6dd3e05583ba28, type: 3}
  m_Name: VDUB2 Loops
  m_EditorClassIdentifier: 
  parameters:
    samples:
    - {fileID: 11400000, guid: ec5899b052f997d4aa3b0fc877afa6ba, type: 2}
    - {fileID: 11400000, guid: ed901fc9baec9c349ad496b51ab73782, type: 2}
    - {fileID: 11400000, guid: d21d02c33fad64b49b79651e0ce98c2d, type: 2}
    - {fileID: 11400000, guid: b7b3f9145b35af649b83de21f37ef03a, type: 2}
    - {fileID: 11400000, guid: 630e6d2574be8c644a6ccc0c61c358c8, type: 2}
    bmp: 140
    mode: 0
    rhythm: 0
