%YAML 1.1
%TAG !u! tag:unity3d.com,2011:
--- !u!114 &11400000
MonoBehaviour:
  m_ObjectHideFlags: 0
  m_PrefabParentObject: {fileID: 0}
  m_PrefabInternal: {fileID: 0}
  m_GameObject: {fileID: 0}
  m_Enabled: 1
  m_EditorHideFlags: 0
  m_Script: {fileID: 11500000, guid: 6cbcd828bd137c940909d7114255c44f, type: 3}
  m_Name: 140bpmCollection
  m_EditorClassIdentifier: 
  parameters:
    bpm: 140
    sampleFamilies:
      essential: []
      nonEssential:
      - {fileID: 11400000, guid: 4389fb9d24d1fec4b8ebd19a46aad33c, type: 2}
      - {fileID: 11400000, guid: f87ca7c17a95d5b41a7c3d40ca7d80eb, type: 2}
      - {fileID: 11400000, guid: 8890626037ad2da4d8c1b0dcf59da69f, type: 2}
      - {fileID: 11400000, guid: 82ae1536964b6674590b5ec1c576e2eb, type: 2}
      - {fileID: 11400000, guid: c362ed863a8e0324aa3841c4cdf35115, type: 2}
      - {fileID: 11400000, guid: 6c48c65ce97d6644ebbb0593cd7d75d6, type: 2}
      - {fileID: 11400000, guid: 611c977826c7a144284cc2a65a2b2430, type: 2}
      - {fileID: 11400000, guid: b682ece8ef341b44a8390c3f2067beaf, type: 2}
      - {fileID: 11400000, guid: 6c1eef8662f287a4e818a0f426a85da3, type: 2}
      - {fileID: 11400000, guid: 6bb4ae1c5bada8c4fbf780a4ed0332ef, type: 2}
      - {fileID: 11400000, guid: 83ce225e99f59f94db5db4eb041b4adc, type: 2}
      - {fileID: 11400000, guid: d2e49207c0aff5445b0c69d80591a0df, type: 2}
      - {fileID: 11400000, guid: 6823f797d2d95254fbd5248982526308, type: 2}
