%YAML 1.1
%TAG !u! tag:unity3d.com,2011:
--- !u!114 &11400000
MonoBehaviour:
  m_ObjectHideFlags: 0
  m_PrefabParentObject: {fileID: 0}
  m_PrefabInternal: {fileID: 0}
  m_GameObject: {fileID: 0}
  m_Enabled: 1
  m_EditorHideFlags: 0
  m_Script: {fileID: 11500000, guid: 4d6c4b4ca24be5a45ba1b4fbae5b7903, type: 3}
  m_Name: ONESHOTS layer Collection
  m_EditorClassIdentifier: 
  parameters:
    layer: 3
    modesDictionary:
      m_keys: 00000000
      m_values:
      - {fileID: 11400000, guid: 2a88d9e752a5b524a921ce88ce59591b, type: 2}
